1d31b2170090a96cc18ce986f74d216a
d0856545d8350f1409136fe2f52bb12f
2eae51c44441f204d1ae073d91b861c2
01a8399bb77302f4b33c6404ce732794
d9a84da1c9f36b3f02446a57f10fc187
ec1034bca71d4c1d23fe5b5149550a13
8447eeb972060014a5f814ecf5bfaf8d
2138ada829f7171b029747ca9d45345c
ed1d3a5f623ffcb12e859cd6ec78b9a8
44ed7418dd8d6ced8b36ffe7e471b394
35c7df53754c7b19206fc6c0d7332579
4e131299be4093a011b871a8a5edd1e7
603721f3f82ee4c52aac67f09ea6c318
df84395f38103d5fd18a5de463524b58
dbd0f1a9c62d36e9b961a6ba8cd86245
6b526de3887df78eee29521550f41784
c5aefe2c6f3efac41823f3b9a4cb1d42
58ea32c2f7e58ba3390d8decfe2108b2
cd39003e97368307c7d9b47badbd378f
bd8caee23921e15e69001d95b2b2fd6f
e6780af84652a4249b310fd33a50a1ab
829930a267c770396c8234c3fb7d1016
40c8409ebc65bfb4e5c5dee3346a61b3
c015474e561a5cc6fe91f0d3e813ff95
bf4ea28693f7ddd5bb70b3d48bd65db9
0f369480fd1cdc20a5240b36cf90a6e4
a3b08a92b8a00bb20ccc42748e8abe44
d9f5128c8c4651cf3e71c2c322141f04
35e520afbe05c48e05bc3cf112af4e23
7c1ca7c58faaf0b8800ff491463430a2
60340ba3f1ac2d60055eb59476b78c62
0cf1401b33b85e943a4d306943f6caa5
33bcd29a0adc3dc6e5526cf429c1d1cd
f577760119975b3e986e6eff1b330132
dd9e2b5ca08c948ba3bf63fc5cad14fb
1a19f1a7b32f27920237e58dd84d0006
51d8fbab8c925d7bbb5f08db2f80c5dc
4683d30758e6f743e6d4de3007bbe980
2e4a1ff8cbe49b684beeff79402d9ac1
8b0b62eec622ec413c75f3bf5b62305c
8197a8167d952c37c30ecf89014ce624
464e047feb6c62b365a5ab0aa7644fa9
cecab887922bfe57ff35141a82d90977
cb5f791494843d95aeaf3c2801360298
6e514ef093d8a512e750524fb7f066f5
f0b28418512fba912c8ede7b54010b1b
3407edc19e674926b2a30a2fcd4733f6
6288fa5ac571c1c677fbc2e609880449
74cf4c20ae848e4e9b357b632a5ee26a
dd75b8a00dd5494f98c2670d0ca055e3
463b4bc48353dda397b38307e691f0ef
0b302d6a815671fcb8380a61b7b8c8ef
90ca966a39a4c8f1087a30c20e49b4ff
aee57a3db6b45e8526d25ca9a8160367
0a0a4c166dfa6cd580d09feff6008ba4
edb9c84d615d9a4b85ba40ca1a3bbabd
6e3fa630d7afdea4bb6afa15d10b4e05
427c7446f799ff6afcbd5e591ac151f3
010d8dc431adbf470ac211434fcaa251
2b5d3918ec3806bdbb53aeaaa2521247
8a7067b4e113eb56939ba6af868ad083
55fc20038c20a64f824baae88204a415
25d6288282d3f2b6f3c451926d5a16ef
a0f7482bad18bfb02c664dc2f912d0c8
54dddffdcbe22f7ed407a292a88ae379
6dcd8f4a20de89211ebdedcf96730f11
0b3597ef151eafaabc6ef623f9806a97
e80394766fa61217ba18af6cf70d6d6a
dbf5644ad694b1c4bb42496bcfffb4d4
43c8278bb1e257dcdeb2250e3b4b561b
7d53e92582b12493d13767af445f570e
254b9046317d129bb2ef7ff3dd5b66c9
b84ce2b4ef4818dba42f88ae3834c570
36b7ef004eed4116c913a7537ac7737f
b448bc92bdbce0af96416dd936f5dd49
45e1219c16304e07240e74267ebfbf7e
61d242ae9431f51ffd3f14d050c2d697
3701fb635bbe391fd46874c85382282e
91b601ae5e80d55897c358bb00bfd71e
ea688cef9dc6b47c65a6587bb3e17ea5
c998201e6c970148a3e6dd6d49c254a0
667e0ac5090ae454d837b35dd813fdd6
04f5c9c36462625e618b5f865466480e
12404b6606419ee8e488ac890e873819
e210bfc90a6fcbbd9c28733e9739d4e4
6d1a8f772cfc1392dfe41fb519a11e10
3c8622c13d46dad45f0287f8164c452a
07ec91751ad1246936f0216c00be600b
bbac06a9c98869c65ade60ef8e071ecf
7c6a5ef8569596c4b2bbfcedc2fc9019
30742d9a1e915d767da860ba4828f036
a597e3223c563c53e5b8d71d98ef048a
797bdb0d9b2e2f20061f177f6e46343c
8f4c17505a566b2f198846be25cda31d
f3e483a5b81a8d78c063af7deca2cd55
e89ef5d00d5d971c4be3518ba7bc0e69
0da3acba3e0651bb9d80d94f8c35e0de
69cd25795f98a1d0416b29e5080f1159
87f0027ffad7410ba2e217ddb8a11211
8eb50f5cf1eadea1baaa2c396cdaa152
5174b8b4bb75773d8341108e03f3c331
94fee1d887ac740039a89ee9886d7da0
48bf9995236e6685ebd0c35750ba2b05
3e3f709b2c520fbb5d0c4035bd40feaa
447b321f0965cb9dd6e38cabf87c5a60
1d287cfd5ab5e924e436cebacd84d9da
0113e35a0d67efc3eafb20400c448487
778d5404eea153dc86fe1a5d0fffbebd
e4dd510e6874fa7d809819d2fd67a24e
96587a38f098ba7e7f1b36b98dfca133
7a2c1c4da1a928b024fe7257583c259e
56866587b32c13856dba305e14b84827
830242ab481fcfe6832f39d6ed87cddf
b5e8e69036ca8ba3460ba9ee3ed4d635
e3258cd752699b952fd8070cf16aefe8
834f2244a99a23cf3187c50f80a76b04
2017e4dd61abfacf5618a4d5017370eb
7934caac942649eb821d4c6d68c74cf7
2b3433bdb167b4034b6eeb897056a4a3
5d4013354da0e2f94ced73f6e7a1afaa
cc7fdd3e4a01d1a05297fb27740aa9b9
6a7815a152daf6626845e42f71c8a9a9
9c945cb41cc9606c3715205990138795
26a6cf82d63b45546a52b9f533d0d5a8
7aa46b5bc816cab67389409a83100515
39e9f621faf31867b6af99749713dbd3
86be55b94cade2994b5d78719418c195
fe63a9c12c926547160ac8d36f5d8054
3cde9e4ae863b88e495df6aa082bbbb5
8d4d4fc0ad45933d526877c1141e026c
5372785ede570a42e8854b5d1a9428a7
12edee3745e5c31433a53738e400f0ad
d3e866f2c525e744fe20f7956290eb6c
393193207e54d33d5bae4b5d84b56f5d
e0a799f751264b8748b4bb4561f557c2
dfcbe69075c595c3a85b56368e378d84
113fa67f9ca4838a2f3b9c5532cb3137
442700b9015436d58ccd8ec000071c91
0a530ad6be67ed713d1a804719243c4b
6ddb19133ce6deb07009da8a83801948
6285119d27a105ef362765781d3fb674
0934648fd9e91dc4aee14d8d2a5af906
229753f0ad10545ee7743a22de17e28b
b80f4fb93fce89fc1262730041e4d3fe
56b21afe6f6dba4216a4f6777383d451
4b1fc3ed932227d4d1cb09ca1a5e3a4f
0690587e7d2ca839cbe2e9f9dd659419
ea564a7615736f1da7fc4e919432b58c
6bfb3582c5eab9a98719d19122dd9e8a
c5e68bf705e4966e82fb897f8c9b05a8
ecb1afd3c49fae371478c525253232fe
b93a76d68c402aff52c89706b8608852
47a0f96caf620e3a1c2ddc26d103a5df
192046102f24015e00cfca3b596570a9
ab3a95cbea7e0efe72f78522aa1c563e
48dd2d2b4196a981dd017278f66c32f7
0bfd868c26ae358ab08ec056cca39b81
59437caf786657e96bc4d133e9b0410c
48dd19e989dbe9cf784fb4f5c6308d11
fd5ed0b36d3f9cc1405e6471eb61f929
9e97b264a2f08515e03fbe2f9a24fc60
a3f569bb34fabb20c4829f62716483fa
644dfc7d67b2e13df8a3472b75bf7ad6
809cfd9087408754d1eb0cbb3949c056
eeaef82f132a45f19deca04ab25b960a
86a6d3d59610f6efd3267c5e8b0f1bae
f740bd729aad3040a2730043093c8fc4
64d1ce1e789aebe1a6d2c9a24c87ff37
1d2936f6996197f102534370ee8e7a97
2d2edbcb09d2fa152403ab1ade6d2bd9
0d877fb94359a5a9f58446e88ed93288
d93d9c7d407d6e61c291edaf8512aff8
8e37dca30eb06a7b150435678f5fbb49
39b906eede257d398a877e8386e632ea
4e0bad5bec263f2b7ba590947d834578
e55aea38fc0dc9e65f18b5ee138d390b
f54e1e5e7d5e7800928d97fbfbff663d
b160e614705322b5f7dc0113efff45bf
dcfec1e3783bcba4a27a0828c6dc7cf2
ea400a8518e14eece1d2204ef5232408
397f6e727f4f00571c03d4ad7aacd0c5
1bbb4de97fd67489085cede42c5fa991
9a49b52ea42eedcff41cd6cc6b5be86e
8f5ce0607da980c73f9859bf9ed54818
7fa300ad37787f2db730d25a6c760cce
25a7b8ecf86b72f63d57f8736ca19ee6
f548f00a1cb8c57b6508074478774f1f
c8b6cb0865cf9a921cd80a2bc232b55e
454d893e4702719ca79c9abf76cdb0a1
77a3ddb5d5fa4936c34b4811257d5f3c
f824accb924605287913fb3081e1b4bf
91879f271ddb502bc83e1b52768a314f
da9e057185039be47a81fc83d224cf88
8cb8c5532c3abdf8f5ed0ffe4bd2e273
e12c1f2fcf6a535c81c9fc831deb4201
f4e7542de2911a02c37a02c18928ef43
902d4adda886cf7984b471227f76fafc
27a8b19a2c599bbb5e63c42b3e63abb4
c10051ea60f10ef8640252f468aa0eae
ec33de706a80104f1de8aec497d8ebe1
